<?xml version="1.0" encoding="UTF-8" standalone="no"?>
<svg
   xmlns:dc="http://purl.org/dc/elements/1.1/"
   xmlns:cc="http://creativecommons.org/ns#"
   xmlns:rdf="http://www.w3.org/1999/02/22-rdf-syntax-ns#"
   xmlns:svg="http://www.w3.org/2000/svg"
   xmlns="http://www.w3.org/2000/svg"
   xmlns:xlink="http://www.w3.org/1999/xlink"
   xmlns:sodipodi="http://sodipodi.sourceforge.net/DTD/sodipodi-0.dtd"
   xmlns:inkscape="http://www.inkscape.org/namespaces/inkscape"
   width="492.91791"
   height="203.41255"
   viewBox="0 0 492.91791 203.41255"
   id="svg3575"
   version="1.1"
   inkscape:version="0.91 r13725"
   sodipodi:docname="HIVE.svg">
  <sodipodi:namedview
     pagecolor="#ffffff"
     bordercolor="#666666"
     borderopacity="1"
     objecttolerance="10"
     gridtolerance="10"
     guidetolerance="10"
     inkscape:pageopacity="0"
     inkscape:pageshadow="2"
     inkscape:window-width="1445"
     inkscape:window-height="860"
     id="namedview3418"
     showgrid="false"
     inkscape:zoom="1.302"
     inkscape:cx="299.91287"
     inkscape:cy="-16.469702"
     inkscape:window-x="0"
     inkscape:window-y="0"
     inkscape:window-maximized="0"
     inkscape:current-layer="layer1"
     fit-margin-top="0"
     fit-margin-left="0"
     fit-margin-right="0"
     fit-margin-bottom="0" />
  <defs
     id="defs3577">
    <linearGradient
       id="linearGradient4437">
      <stop
         id="stop4439"
         offset="0"
         style="stop-color:#f2f2f2;stop-opacity:0" />
      <stop
         id="stop4441"
         offset="1"
         style="stop-color:#f2f2f2;stop-opacity:1" />
    </linearGradient>
    <linearGradient
       id="linearGradient4802">
      <stop
         id="stop4806"
         offset="0"
         style="stop-color:#4d4d4d;stop-opacity:1" />
      <stop
         id="stop4804"
         offset="1"
         style="stop-color:#f2f2f2;stop-opacity:1;" />
    </linearGradient>
    <linearGradient
       id="linearGradient3939">
      <stop
         id="stop3941"
         offset="0"
         style="stop-color:#f2f2f2;stop-opacity:1;" />
      <stop
         id="stop3943"
         offset="1"
         style="stop-color:#4d4d4d;stop-opacity:1" />
    </linearGradient>
    <linearGradient
       id="linearGradient3923">
      <stop
         style="stop-color:#4d4d4d;stop-opacity:1;"
         offset="0"
         id="stop3925" />
      <stop
         style="stop-color:#4d4d4d;stop-opacity:0;"
         offset="1"
         id="stop3927" />
    </linearGradient>
    <linearGradient
       id="linearGradient3911">
      <stop
         style="stop-color:#f2f2f2;stop-opacity:1;"
         offset="0"
         id="stop3913" />
      <stop
         style="stop-color:#f2f2f2;stop-opacity:0;"
         offset="1"
         id="stop3915" />
    </linearGradient>
    <linearGradient
       id="linearGradient3899">
      <stop
         id="stop3903"
         offset="0"
         style="stop-color:#666666;stop-opacity:0;" />
      <stop
         id="stop3901"
         offset="1"
         style="stop-color:#666666;stop-opacity:1;" />
    </linearGradient>
    <radialGradient
       xlink:href="#linearGradient4802"
       id="radialGradient3907"
       cx="139.41248"
       cy="793.41248"
       fx="139.41248"
       fy="793.41248"
       r="472.45703"
       gradientTransform="matrix(-0.01946144,-0.43213809,1.1245144,-0.03355525,-685.17015,619.67523)"
       gradientUnits="userSpaceOnUse" />
    <radialGradient
       xlink:href="#linearGradient3911"
       id="radialGradient3917"
       cx="837.14288"
       cy="1346.1647"
       fx="837.14288"
       fy="1346.1647"
       r="636.50781"
       gradientTransform="matrix(1.6608482,1.1895265,-0.60765519,0.84842417,264.77961,-794.13155)"
       gradientUnits="userSpaceOnUse" />
    <radialGradient
       xlink:href="#linearGradient3911"
       id="radialGradient3919"
       cx="537.14288"
       cy="1390.6406"
       fx="537.14288"
       fy="1390.6406"
       r="816.50781"
       gradientTransform="matrix(0.88180414,0.87480579,-0.60991948,0.61479877,888.80973,90.35944)"
       gradientUnits="userSpaceOnUse" />
    <radialGradient
       xlink:href="#linearGradient3923"
       id="radialGradient3929"
       cx="38.331844"
       cy="623.94025"
       fx="38.331844"
       fy="623.94025"
       r="955.60431"
       gradientTransform="matrix(0.19626268,1.4300512,-1.4445092,0.1983537,1135.1058,1443.8371)"
       gradientUnits="userSpaceOnUse" />
    <radialGradient
       xlink:href="#linearGradient3939"
       id="radialGradient3937"
       cx="242.4173"
       cy="1036.6266"
       fx="242.4173"
       fy="1036.6266"
       r="998.0307"
       gradientTransform="matrix(-0.71569513,0.05153009,-0.05509629,-0.76522558,387.75401,2284.5522)"
       gradientUnits="userSpaceOnUse" />
    <linearGradient
       xlink:href="#linearGradient3899"
       id="linearGradient3947"
       x1="1007.4415"
       y1="519.87506"
       x2="1007.4415"
       y2="692.88959"
       gradientUnits="userSpaceOnUse" />
    <linearGradient
       xlink:href="#linearGradient3899"
       id="linearGradient3975"
       gradientUnits="userSpaceOnUse"
       x1="1007.4415"
       y1="519.87506"
       x2="1007.4415"
       y2="692.88959"
       gradientTransform="translate(4.4917776,51.64993)" />
    <linearGradient
       xlink:href="#linearGradient4802"
       id="linearGradient4777"
       gradientUnits="userSpaceOnUse"
       x1="1007.4415"
       y1="519.87506"
       x2="1007.4415"
       y2="692.88959" />
    <radialGradient
       xlink:href="#linearGradient4437"
       id="radialGradient4800"
       gradientUnits="userSpaceOnUse"
       gradientTransform="matrix(0.35072237,0.2569784,-0.27429416,0.31568332,1003.6279,199.09528)"
       cx="879.51721"
       cy="1570.9473"
       fx="879.51721"
       fy="1570.9473"
       r="636.50781" />
    <linearGradient
       xlink:href="#linearGradient3939"
       id="linearGradient4824"
       x1="264.13303"
       y1="883.33319"
       x2="264.13303"
       y2="1011.2372"
       gradientUnits="userSpaceOnUse"
       gradientTransform="translate(3.976196,58.347223)" />
    <linearGradient
       inkscape:collect="always"
       xlink:href="#linearGradient4802"
       id="linearGradient4656"
       gradientUnits="userSpaceOnUse"
       x1="1007.4415"
       y1="519.87506"
       x2="1007.4415"
       y2="692.88959" />
    <linearGradient
       inkscape:collect="always"
       xlink:href="#linearGradient4802"
       id="linearGradient4658"
       gradientUnits="userSpaceOnUse"
       x1="1007.4415"
       y1="519.87506"
       x2="1007.4415"
       y2="692.88959" />
    <linearGradient
       inkscape:collect="always"
       xlink:href="#linearGradient4802"
       id="linearGradient4660"
       gradientUnits="userSpaceOnUse"
       x1="1007.4415"
       y1="519.87506"
       x2="1007.4415"
       y2="692.88959" />
    <linearGradient
       inkscape:collect="always"
       xlink:href="#linearGradient4802"
       id="linearGradient4662"
       gradientUnits="userSpaceOnUse"
       x1="1007.4415"
       y1="519.87506"
       x2="1007.4415"
       y2="692.88959" />
    <linearGradient
       inkscape:collect="always"
       xlink:href="#linearGradient3939"
       id="linearGradient4664"
       gradientUnits="userSpaceOnUse"
       gradientTransform="translate(3.976196,58.347223)"
       x1="264.13303"
       y1="883.33319"
       x2="264.13303"
       y2="1011.2372" />
    <linearGradient
       inkscape:collect="always"
       xlink:href="#linearGradient3939"
       id="linearGradient4666"
       gradientUnits="userSpaceOnUse"
       gradientTransform="translate(3.976196,58.347223)"
       x1="264.13303"
       y1="883.33319"
       x2="264.13303"
       y2="1011.2372" />
    <linearGradient
       inkscape:collect="always"
       xlink:href="#linearGradient3939"
       id="linearGradient4668"
       gradientUnits="userSpaceOnUse"
       gradientTransform="translate(3.976196,58.347223)"
       x1="264.13303"
       y1="883.33319"
       x2="264.13303"
       y2="1011.2372" />
    <linearGradient
       inkscape:collect="always"
       xlink:href="#linearGradient3939"
       id="linearGradient4670"
       gradientUnits="userSpaceOnUse"
       gradientTransform="translate(3.976196,58.347223)"
       x1="264.13303"
       y1="883.33319"
       x2="264.13303"
       y2="1011.2372" />
    <linearGradient
       inkscape:collect="always"
       xlink:href="#linearGradient3939"
       id="linearGradient4672"
       gradientUnits="userSpaceOnUse"
       gradientTransform="translate(3.976196,58.347223)"
       x1="264.13303"
       y1="883.33319"
       x2="264.13303"
       y2="1011.2372" />
    <linearGradient
       inkscape:collect="always"
       xlink:href="#linearGradient3939"
       id="linearGradient4674"
       gradientUnits="userSpaceOnUse"
       gradientTransform="translate(3.976196,58.347223)"
       x1="264.13303"
       y1="883.33319"
       x2="264.13303"
       y2="1011.2372" />
    <linearGradient
       inkscape:collect="always"
       xlink:href="#linearGradient3939"
       id="linearGradient4676"
       gradientUnits="userSpaceOnUse"
       gradientTransform="translate(3.976196,58.347223)"
       x1="264.13303"
       y1="883.33319"
       x2="264.13303"
       y2="1011.2372" />
    <linearGradient
       inkscape:collect="always"
       xlink:href="#linearGradient3939"
       id="linearGradient4678"
       gradientUnits="userSpaceOnUse"
       gradientTransform="translate(3.976196,58.347223)"
       x1="264.13303"
       y1="883.33319"
       x2="264.13303"
       y2="1011.2372" />
    <linearGradient
       inkscape:collect="always"
       xlink:href="#linearGradient3939"
       id="linearGradient4680"
       gradientUnits="userSpaceOnUse"
       gradientTransform="translate(3.976196,58.347223)"
       x1="264.13303"
       y1="883.33319"
       x2="264.13303"
       y2="1011.2372" />
    <linearGradient
       inkscape:collect="always"
       xlink:href="#linearGradient3939"
       id="linearGradient4682"
       gradientUnits="userSpaceOnUse"
       gradientTransform="translate(3.976196,58.347223)"
       x1="264.13303"
       y1="883.33319"
       x2="264.13303"
       y2="1011.2372" />
    <linearGradient
       inkscape:collect="always"
       xlink:href="#linearGradient3939"
       id="linearGradient4684"
       gradientUnits="userSpaceOnUse"
       gradientTransform="translate(3.976196,58.347223)"
       x1="264.13303"
       y1="883.33319"
       x2="264.13303"
       y2="1011.2372" />
    <linearGradient
       inkscape:collect="always"
       xlink:href="#linearGradient3939"
       id="linearGradient4686"
       gradientUnits="userSpaceOnUse"
       gradientTransform="translate(3.976196,58.347223)"
       x1="264.13303"
       y1="883.33319"
       x2="264.13303"
       y2="1011.2372" />
    <linearGradient
       inkscape:collect="always"
       xlink:href="#linearGradient3939"
       id="linearGradient4688"
       gradientUnits="userSpaceOnUse"
       gradientTransform="translate(3.976196,58.347223)"
       x1="264.13303"
       y1="883.33319"
       x2="264.13303"
       y2="1011.2372" />
    <linearGradient
       inkscape:collect="always"
       xlink:href="#linearGradient3939"
       id="linearGradient4690"
       gradientUnits="userSpaceOnUse"
       gradientTransform="translate(3.976196,58.347223)"
       x1="264.13303"
       y1="883.33319"
       x2="264.13303"
       y2="1011.2372" />
    <linearGradient
       inkscape:collect="always"
       xlink:href="#linearGradient3939"
       id="linearGradient4692"
       gradientUnits="userSpaceOnUse"
       gradientTransform="translate(3.976196,58.347223)"
       x1="264.13303"
       y1="883.33319"
       x2="264.13303"
       y2="1011.2372" />
    <linearGradient
       inkscape:collect="always"
       xlink:href="#linearGradient3939"
       id="linearGradient4694"
       gradientUnits="userSpaceOnUse"
       gradientTransform="translate(3.976196,58.347223)"
       x1="264.13303"
       y1="883.33319"
       x2="264.13303"
       y2="1011.2372" />
    <linearGradient
       inkscape:collect="always"
       xlink:href="#linearGradient3939"
       id="linearGradient4696"
       gradientUnits="userSpaceOnUse"
       gradientTransform="translate(3.976196,58.347223)"
       x1="264.13303"
       y1="883.33319"
       x2="264.13303"
       y2="1011.2372" />
    <linearGradient
       inkscape:collect="always"
       xlink:href="#linearGradient3939"
       id="linearGradient4698"
       gradientUnits="userSpaceOnUse"
       gradientTransform="translate(3.976196,58.347223)"
       x1="264.13303"
       y1="883.33319"
       x2="264.13303"
       y2="1011.2372" />
    <linearGradient
       inkscape:collect="always"
       xlink:href="#linearGradient3939"
       id="linearGradient4700"
       gradientUnits="userSpaceOnUse"
       gradientTransform="translate(3.976196,58.347223)"
       x1="264.13303"
       y1="883.33319"
       x2="264.13303"
       y2="1011.2372" />
    <linearGradient
       inkscape:collect="always"
       xlink:href="#linearGradient3939"
       id="linearGradient4702"
       gradientUnits="userSpaceOnUse"
       gradientTransform="translate(3.976196,58.347223)"
       x1="264.13303"
       y1="883.33319"
       x2="264.13303"
       y2="1011.2372" />
    <linearGradient
       inkscape:collect="always"
       xlink:href="#linearGradient3939"
       id="linearGradient4704"
       gradientUnits="userSpaceOnUse"
       gradientTransform="translate(3.976196,58.347223)"
       x1="264.13303"
       y1="883.33319"
       x2="264.13303"
       y2="1011.2372" />
    <linearGradient
       inkscape:collect="always"
       xlink:href="#linearGradient3939"
       id="linearGradient4706"
       gradientUnits="userSpaceOnUse"
       gradientTransform="translate(3.976196,58.347223)"
       x1="264.13303"
       y1="883.33319"
       x2="264.13303"
       y2="1011.2372" />
    <linearGradient
       inkscape:collect="always"
       xlink:href="#linearGradient3939"
       id="linearGradient4708"
       gradientUnits="userSpaceOnUse"
       gradientTransform="translate(3.976196,58.347223)"
       x1="264.13303"
       y1="883.33319"
       x2="264.13303"
       y2="1011.2372" />
    <linearGradient
       inkscape:collect="always"
       xlink:href="#linearGradient3939"
       id="linearGradient4710"
       gradientUnits="userSpaceOnUse"
       gradientTransform="translate(3.976196,58.347223)"
       x1="264.13303"
       y1="883.33319"
       x2="264.13303"
       y2="1011.2372" />
    <linearGradient
       inkscape:collect="always"
       xlink:href="#linearGradient3939"
       id="linearGradient4712"
       gradientUnits="userSpaceOnUse"
       gradientTransform="translate(3.976196,58.347223)"
       x1="264.13303"
       y1="883.33319"
       x2="264.13303"
       y2="1011.2372" />
    <linearGradient
       inkscape:collect="always"
       xlink:href="#linearGradient3939"
       id="linearGradient4714"
       gradientUnits="userSpaceOnUse"
       gradientTransform="translate(3.976196,58.347223)"
       x1="264.13303"
       y1="883.33319"
       x2="264.13303"
       y2="1011.2372" />
    <linearGradient
       inkscape:collect="always"
       xlink:href="#linearGradient3939"
       id="linearGradient4716"
       gradientUnits="userSpaceOnUse"
       gradientTransform="translate(3.976196,58.347223)"
       x1="264.13303"
       y1="883.33319"
       x2="264.13303"
       y2="1011.2372" />
    <linearGradient
       inkscape:collect="always"
       xlink:href="#linearGradient3939"
       id="linearGradient4718"
       gradientUnits="userSpaceOnUse"
       gradientTransform="translate(3.976196,58.347223)"
       x1="264.13303"
       y1="883.33319"
       x2="264.13303"
       y2="1011.2372" />
    <linearGradient
       inkscape:collect="always"
       xlink:href="#linearGradient3939"
       id="linearGradient4720"
       gradientUnits="userSpaceOnUse"
       gradientTransform="translate(3.976196,58.347223)"
       x1="264.13303"
       y1="883.33319"
       x2="264.13303"
       y2="1011.2372" />
    <linearGradient
       inkscape:collect="always"
       xlink:href="#linearGradient3939"
       id="linearGradient4722"
       gradientUnits="userSpaceOnUse"
       gradientTransform="translate(3.976196,58.347223)"
       x1="264.13303"
       y1="883.33319"
       x2="264.13303"
       y2="1011.2372" />
    <linearGradient
       inkscape:collect="always"
       xlink:href="#linearGradient3939"
       id="linearGradient4724"
       gradientUnits="userSpaceOnUse"
       gradientTransform="translate(3.976196,58.347223)"
       x1="264.13303"
       y1="883.33319"
       x2="264.13303"
       y2="1011.2372" />
    <linearGradient
       inkscape:collect="always"
       xlink:href="#linearGradient3939"
       id="linearGradient4726"
       gradientUnits="userSpaceOnUse"
       gradientTransform="translate(3.976196,58.347223)"
       x1="264.13303"
       y1="883.33319"
       x2="264.13303"
       y2="1011.2372" />
    <linearGradient
       inkscape:collect="always"
       xlink:href="#linearGradient3939"
       id="linearGradient4728"
       gradientUnits="userSpaceOnUse"
       gradientTransform="translate(3.976196,58.347223)"
       x1="264.13303"
       y1="883.33319"
       x2="264.13303"
       y2="1011.2372" />
    <linearGradient
       inkscape:collect="always"
       xlink:href="#linearGradient3939"
       id="linearGradient4730"
       gradientUnits="userSpaceOnUse"
       gradientTransform="translate(3.976196,58.347223)"
       x1="264.13303"
       y1="883.33319"
       x2="264.13303"
       y2="1011.2372" />
    <linearGradient
       inkscape:collect="always"
       xlink:href="#linearGradient3939"
       id="linearGradient4732"
       gradientUnits="userSpaceOnUse"
       gradientTransform="translate(3.976196,58.347223)"
       x1="264.13303"
       y1="883.33319"
       x2="264.13303"
       y2="1011.2372" />
    <linearGradient
       inkscape:collect="always"
       xlink:href="#linearGradient3939"
       id="linearGradient4734"
       gradientUnits="userSpaceOnUse"
       gradientTransform="translate(3.976196,58.347223)"
       x1="264.13303"
       y1="883.33319"
       x2="264.13303"
       y2="1011.2372" />
    <clipPath
       clipPathUnits="userSpaceOnUse"
       id="clipPath5288">
      <path
         style="font-style:normal;font-weight:normal;font-size:medium;line-height:125%;font-family:sans-serif;letter-spacing:-15.90155125px;word-spacing:0px;fill:url(#linearGradient5292);fill-opacity:1;stroke:none;stroke-width:1px;stroke-linecap:butt;stroke-linejoin:miter;stroke-opacity:1"
         d="m 16.216518,573.51456 0,338.8481 83.031509,0 0,-137.06383 90.734593,0 0,137.06383 83.39796,0 0,-338.8481 -83.39796,0 0,118.57336 -90.734593,0 0,-118.57336 -83.031509,0 z m 301.844272,0 0,338.8481 83.21473,0 0,-338.8481 -83.21473,0 z m 116.75637,0 101.54871,338.8481 89.99788,0 99.71263,-338.8481 -84.3141,0 -59.57487,243.84971 -60.48719,-243.84971 -86.88306,0 z m 318.20476,0 0,338.8481 226.55402,0 0,-76.73696 -143.33929,0 0,-66.80081 129.22715,0 0,-69.11022 -129.22715,0 0,-53.85291 139.30834,0 0,-72.3472 -222.52307,0 z"
         id="path5290"
         inkscape:connector-curvature="0" />
    </clipPath>
    <linearGradient
       inkscape:collect="always"
       xlink:href="#linearGradient3899"
       id="linearGradient5292"
       gradientUnits="userSpaceOnUse"
       gradientTransform="matrix(0.89051604,0,0,1.1229444,-4.3645982e-7,-6.304503e-6)"
       x1="1007.4415"
       y1="519.87506"
       x2="1007.4415"
       y2="692.88959" />
  </defs>
  <metadata
     id="metadata3580">
    <rdf:RDF>
      <cc:Work
         rdf:about="">
        <dc:format>image/svg+xml</dc:format>
        <dc:type
           rdf:resource="http://purl.org/dc/dcmitype/StillImage" />
        <dc:title></dc:title>
      </cc:Work>
    </rdf:RDF>
  </metadata>
  <g
     id="layer1"
     transform="matrix(0.5116657,0,0,0.5116657,-10.344099,-323.12434)"
     style="opacity:1">
    <g
       id="g3957"
       clip-path="url(#clipPath5288)"
       transform="translate(4,58)">
      <g
         id="text3583"
         style="font-style:normal;font-weight:normal;font-size:93.67629242px;line-height:125%;font-family:sans-serif;letter-spacing:-32.34173203px;word-spacing:0px;fill:url(#linearGradient4777);fill-opacity:1;stroke:none;stroke-width:1px;stroke-linecap:butt;stroke-linejoin:miter;stroke-opacity:1"
         transform="scale(0.89051604,1.1229444)">
        <path
           id="path3626"
           style="letter-spacing:-15.90155125px;fill:url(#linearGradient4656);fill-opacity:1"
           d="m 18.210248,510.72392 93.241762,0 0,105.59167 101.8867,0 0,-105.59167 93.65342,0 0,301.74929 -93.65342,0 0,-122.05821 -101.8867,0 0,122.05821 -93.241762,0 0,-301.74929 z"
           inkscape:connector-curvature="0" />
        <path
           id="path3628"
           style="font-style:normal;font-variant:normal;font-weight:900;font-stretch:normal;font-size:421.54333496px;font-family:'Arial Black';-inkscape-font-specification:'Arial Black, Heavy';letter-spacing:0px;fill:url(#linearGradient4658);fill-opacity:1"
           d="m 357.16255,510.72392 93.4476,0 0,301.74929 -93.4476,0 0,-301.74929 z"
           inkscape:connector-curvature="0" />
        <path
           id="path3630"
           style="font-style:normal;font-variant:normal;font-weight:900;font-stretch:normal;font-size:421.54333496px;font-family:'Arial Black';-inkscape-font-specification:'Arial Black, Heavy';letter-spacing:0px;fill:url(#linearGradient4660);fill-opacity:1"
           d="m 488.27733,510.72392 97.56423,0 67.92446,217.15245 66.8953,-217.15245 94.68259,0 -111.97245,301.74929 -101.06337,0 -114.03076,-301.74929 z"
           inkscape:connector-curvature="0" />
        <path
           id="path3632"
           style="font-style:normal;font-variant:normal;font-weight:900;font-stretch:normal;font-size:421.54333496px;font-family:'Arial Black';-inkscape-font-specification:'Arial Black, Heavy';letter-spacing:0px;fill:url(#linearGradient4662);fill-opacity:1"
           d="m 845.60118,510.72392 249.87972,0 0,64.42533 -156.43213,0 0,47.95879 145.11133,0 0,61.54368 -145.11133,0 0,59.48536 160.96043,0 0,68.33613 -254.40802,0 0,-301.74929 z"
           inkscape:connector-curvature="0" />
      </g>
      <path
         id="path3895"
         d="M 654.32657,391.58899 A 449.59988,331.62741 0 0 1 204.72668,723.2164 449.59988,331.62741 0 0 1 -244.8732,391.58899 449.59988,331.62741 0 0 1 204.72668,59.961578 449.59988,331.62741 0 0 1 654.32657,391.58899 Z"
         style="opacity:0.71399997;fill:url(#radialGradient3907);fill-opacity:1"
         inkscape:connector-curvature="0" />
      <path
         id="path3893"
         d="m 1428.9895,1383.0236 a 998.0307,765.69562 0 0 1 -998.03073,765.6956 998.0307,765.69562 0 0 1 -998.0307,-765.6956 998.0307,765.69562 0 0 1 998.0307,-765.69566 998.0307,765.69562 0 0 1 998.03073,765.69566 z"
         style="opacity:0.5;fill:url(#radialGradient3937);fill-opacity:1"
         inkscape:connector-curvature="0" />
      <path
         id="path3889"
         d="M 1493.8423,1450.3623 A 955.60431,785.89868 0 0 1 538.23798,2236.261 955.60431,785.89868 0 0 1 -417.36633,1450.3623 955.60431,785.89868 0 0 1 538.23798,664.46362 955.60431,785.89868 0 0 1 1493.8423,1450.3623 Z"
         style="opacity:0.5;fill:url(#radialGradient3929);fill-opacity:1"
         inkscape:connector-curvature="0" />
      <path
         id="path3891"
         d="M 1487.925,1426.3463 A 816.50781,707.10675 0 0 1 671.41718,2133.4531 816.50781,707.10675 0 0 1 -145.09064,1426.3463 816.50781,707.10675 0 0 1 671.41718,719.23956 816.50781,707.10675 0 0 1 1487.925,1426.3463 Z"
         style="opacity:0.77999998;fill:url(#radialGradient3919);fill-opacity:1"
         inkscape:connector-curvature="0" />
      <path
         id="ellipse3897"
         d="M 1476.4964,1400.6321 A 636.50781,664.24963 0 0 1 839.98859,2064.8817 636.50781,664.24963 0 0 1 203.48077,1400.6321 636.50781,664.24963 0 0 1 839.98859,736.38245 636.50781,664.24963 0 0 1 1476.4964,1400.6321 Z"
         style="opacity:0.5;fill:url(#radialGradient3917);fill-opacity:1"
         inkscape:connector-curvature="0" />
      <path
         id="ellipse4798"
         d="M 1039.1385,878.88097 A 138.25896,135.67822 0 0 1 900.8795,1014.5592 138.25896,135.67822 0 0 1 762.62054,878.88097 138.25896,135.67822 0 0 1 900.8795,743.20275 a 138.25896,135.67822 0 0 1 138.259,135.67822 z"
         style="opacity:0.522;fill:url(#radialGradient4800);fill-opacity:1"
         inkscape:connector-curvature="0" />
    </g>
    <g
       id="text4818"
       style="font-style:normal;font-variant:normal;font-weight:500;font-stretch:normal;font-size:49.61639786px;line-height:125%;font-family:Lato;-inkscape-font-specification:'Lato Medium';letter-spacing:0px;word-spacing:0px;fill:url(#linearGradient4824);fill-opacity:1;stroke:none;stroke-width:1px;stroke-linecap:butt;stroke-linejoin:miter;stroke-opacity:1"
       transform="scale(1.0059866,0.99404902)">
      <path
         id="path3553"
         style="font-style:normal;font-variant:normal;font-weight:500;font-stretch:normal;font-family:Lato;-inkscape-font-specification:'Lato Medium';fill:url(#linearGradient4664);fill-opacity:1"
         d="m 50.877089,999.20343 0,35.62457 -5.284146,0 0,-16.0509 -18.581341,0 0,16.0509 -5.308955,0 0,-35.62457 5.308955,0 0,15.72837 18.581341,0 0,-15.72837 5.284146,0 z"
         inkscape:connector-curvature="0" />
      <path
         id="path3555"
         style="font-style:normal;font-variant:normal;font-weight:500;font-stretch:normal;font-family:Lato;-inkscape-font-specification:'Lato Medium';fill:url(#linearGradient4666);fill-opacity:1"
         d="m 78.618859,1021.5556 -5.284146,-13.8182 q -0.570589,-1.414 -1.141177,-3.5723 -0.27289,1.0667 -0.570589,1.9846 -0.27289,0.9179 -0.54578,1.6374 l -5.259338,13.7685 12.80103,0 z m 10.444252,13.2724 -4.068545,0 q -0.694629,0 -1.141177,-0.3473 -0.446547,-0.3473 -0.645013,-0.8931 l -3.150641,-8.2611 -15.70359,0 -3.150641,8.2611 q -0.173658,0.4713 -0.645013,0.8683 -0.471356,0.3721 -1.141178,0.3721 l -4.068544,0 14.19029,-35.62457 5.333762,0 14.19029,35.62457 z"
         inkscape:connector-curvature="0" />
      <path
         id="path3557"
         style="font-style:normal;font-variant:normal;font-weight:500;font-stretch:normal;font-family:Lato;-inkscape-font-specification:'Lato Medium';fill:url(#linearGradient4668);fill-opacity:1"
         d="m 122.68519,999.20343 0,35.62457 -2.67928,0 q -0.62021,0 -1.04195,-0.2233 -0.39693,-0.2232 -0.81867,-0.7194 l -20.119445,-26.0238 q 0.04962,0.6698 0.07442,1.3148 0.04962,0.645 0.04962,1.2156 l 0,24.4361 -4.639133,0 0,-35.62457 2.728901,0 q 0.69463,0 1.041945,0.17366 0.347315,0.14885 0.769054,0.71941 l 20.169068,26.0486 q -0.0744,-0.7194 -0.12404,-1.3892 -0.0248,-0.6947 -0.0248,-1.2901 l 0,-24.26237 4.61432,0 z"
         inkscape:connector-curvature="0" />
      <path
         id="path3559"
         style="font-style:normal;font-variant:normal;font-weight:500;font-stretch:normal;font-family:Lato;-inkscape-font-specification:'Lato Medium';fill:url(#linearGradient4670);fill-opacity:1"
         d="m 150.42697,1021.5556 -5.28414,-13.8182 q -0.57059,-1.414 -1.14118,-3.5723 -0.27289,1.0667 -0.57059,1.9846 -0.27289,0.9179 -0.54578,1.6374 l -5.25934,13.7685 12.80103,0 z m 10.44425,13.2724 -4.06854,0 q -0.69463,0 -1.14118,-0.3473 -0.44655,-0.3473 -0.64501,-0.8931 l -3.15064,-8.2611 -15.70359,0 -3.15064,8.2611 q -0.17366,0.4713 -0.64502,0.8683 -0.47135,0.3721 -1.14117,0.3721 l -4.06855,0 14.19029,-35.62457 5.33376,0 14.19029,35.62457 z"
         inkscape:connector-curvature="0" />
      <path
         id="path3561"
         style="font-style:normal;font-variant:normal;font-weight:500;font-stretch:normal;font-family:Lato;-inkscape-font-specification:'Lato Medium';fill:url(#linearGradient4672);fill-opacity:1"
         d="m 181.4814,1034.828 -5.30895,0 0,-35.62457 5.30895,0 0,35.62457 z"
         inkscape:connector-curvature="0" />
      <path
         id="path3563"
         style="font-style:normal;font-variant:normal;font-weight:500;font-stretch:normal;font-family:Lato;-inkscape-font-specification:'Lato Medium';fill:url(#linearGradient4674);fill-opacity:1"
         d="m 188.84402,1034.828 0,-25.2051 2.90256,0 q 1.01713,0 1.26521,0.9675 l 0.34732,2.4064 q 1.38926,-1.6622 3.07622,-2.7041 1.71176,-1.0668 3.99412,-1.0668 2.50562,0 4.06854,1.3893 1.56292,1.3645 2.28235,3.7212 0.54578,-1.3396 1.41407,-2.3071 0.86829,-0.9676 1.93504,-1.5878 1.06675,-0.6202 2.25755,-0.9179 1.2156,-0.2977 2.45601,-0.2977 2.00946,0 3.57238,0.6451 1.58772,0.6202 2.67929,1.8358 1.09156,1.2156 1.66214,3.0018 0.57059,1.7861 0.57059,4.0685 l 0,16.0509 -4.8624,0 0,-16.0509 q 0,-2.8281 -1.24041,-4.267 -1.21561,-1.4389 -3.57238,-1.4389 -1.04195,0 -1.98466,0.3721 -0.94271,0.3474 -1.66215,1.0668 -0.69463,0.7194 -1.11637,1.7862 -0.39693,1.0667 -0.39693,2.4808 l 0,16.0509 -4.86241,0 0,-16.0509 q 0,-2.9274 -1.16598,-4.3166 -1.16599,-1.3893 -3.42353,-1.3893 -1.56292,0 -2.90256,0.8187 -1.33965,0.8187 -2.45601,2.2327 l 0,18.7054 -4.8376,0 z"
         inkscape:connector-curvature="0" />
      <path
         id="path3565"
         style="font-style:normal;font-variant:normal;font-weight:500;font-stretch:normal;font-family:Lato;-inkscape-font-specification:'Lato Medium';fill:url(#linearGradient4676);fill-opacity:1"
         d="m 229.83569,1034.828 0,-25.2051 2.90255,0 q 1.01714,0 1.26522,0.9675 l 0.34732,2.4064 q 1.38926,-1.6622 3.07621,-2.7041 1.71177,-1.0668 3.99412,-1.0668 2.50563,0 4.06855,1.3893 1.56292,1.3645 2.28235,3.7212 0.54578,-1.3396 1.41407,-2.3071 0.86829,-0.9676 1.93504,-1.5878 1.06675,-0.6202 2.25755,-0.9179 1.2156,-0.2977 2.45601,-0.2977 2.00946,0 3.57238,0.6451 1.58772,0.6202 2.67928,1.8358 1.09156,1.2156 1.66215,3.0018 0.57059,1.7861 0.57059,4.0685 l 0,16.0509 -4.86241,0 0,-16.0509 q 0,-2.8281 -1.24041,-4.267 -1.2156,-1.4389 -3.57238,-1.4389 -1.04194,0 -1.98465,0.3721 -0.94271,0.3474 -1.66215,1.0668 -0.69463,0.7194 -1.11637,1.7862 -0.39693,1.0667 -0.39693,2.4808 l 0,16.0509 -4.86241,0 0,-16.0509 q 0,-2.9274 -1.16598,-4.3166 -1.16599,-1.3893 -3.42353,-1.3893 -1.56292,0 -2.90256,0.8187 -1.33965,0.8187 -2.45602,2.2327 l 0,18.7054 -4.83759,0 z"
         inkscape:connector-curvature="0" />
      <path
         id="path3567"
         style="font-style:normal;font-variant:normal;font-weight:500;font-stretch:normal;font-family:Lato;-inkscape-font-specification:'Lato Medium';fill:url(#linearGradient4678);fill-opacity:1"
         d="m 287.52327,1019.4221 q 0,-1.4389 -0.42174,-2.6545 -0.39693,-1.2156 -1.19079,-2.1087 -0.79386,-0.8931 -1.93504,-1.3892 -1.14118,-0.4962 -2.62967,-0.4962 -3.05141,0 -4.81279,1.7614 -1.73657,1.7614 -2.20793,4.8872 l 13.19796,0 z m 3.99412,11.8087 q -0.89309,1.042 -2.05908,1.811 -1.16598,0.7443 -2.48082,1.2156 -1.31483,0.4714 -2.7289,0.6946 -1.38926,0.2233 -2.75371,0.2233 -2.60486,0 -4.8376,-0.8683 -2.20793,-0.8931 -3.84527,-2.58 -1.61253,-1.7118 -2.53044,-4.2174 -0.89309,-2.5305 -0.89309,-5.8051 0,-2.6297 0.81867,-4.8872 0.81867,-2.2824 2.33197,-3.9694 1.53811,-1.6869 3.74604,-2.6544 2.20793,-0.9676 4.96164,-0.9676 2.30716,0 4.2422,0.7691 1.95985,0.7442 3.37391,2.1831 1.41407,1.4389 2.20793,3.5476 0.81867,2.1087 0.81867,4.8128 0,1.1163 -0.24808,1.5133 -0.24808,0.3721 -0.9179,0.3721 l -16.52226,0 q 0.0744,2.2575 0.64501,3.9445 0.57059,1.6622 1.56292,2.7785 1.01713,1.1164 2.40639,1.6622 1.38926,0.5458 3.10103,0.5458 1.61253,0 2.77852,-0.3722 1.19079,-0.3721 2.03427,-0.7938 0.86829,-0.4466 1.43888,-0.8187 0.59539,-0.3721 1.04194,-0.3721 0.5954,0 0.9179,0.4465 l 1.38926,1.7862 z"
         inkscape:connector-curvature="0" />
      <path
         id="path3569"
         style="font-style:normal;font-variant:normal;font-weight:500;font-stretch:normal;font-family:Lato;-inkscape-font-specification:'Lato Medium';fill:url(#linearGradient4680);fill-opacity:1"
         d="m 301.65387,1014.4605 q 1.2156,-2.4808 2.92737,-3.8949 1.71177,-1.4141 4.11816,-1.4141 0.81867,0 1.53811,0.1985 0.74425,0.1736 1.29003,0.5458 l -0.32251,3.6468 q -0.17366,0.6698 -0.81867,0.6698 -0.34732,0 -1.04195,-0.1241 -0.69462,-0.1488 -1.48849,-0.1488 -1.16598,0 -2.05908,0.3473 -0.89309,0.3225 -1.61253,0.9923 -0.69463,0.6451 -1.24041,1.6126 -0.54578,0.9427 -1.01714,2.1583 l 0,15.778 -4.8376,0 0,-25.2051 2.77852,0 q 0.79387,0 1.06676,0.2977 0.29769,0.2729 0.42173,0.9923 l 0.2977,3.5476 z"
         inkscape:connector-curvature="0" />
      <path
         id="path3571"
         style="font-style:normal;font-variant:normal;font-weight:500;font-stretch:normal;font-family:Lato;-inkscape-font-specification:'Lato Medium';fill:url(#linearGradient4682);fill-opacity:1"
         d="m 329.97399,1013.9643 q -0.19846,0.3225 -0.42173,0.4714 -0.22328,0.124 -0.57059,0.124 -0.39693,0 -0.8931,-0.2729 -0.47135,-0.2729 -1.16598,-0.5954 -0.66983,-0.3225 -1.58773,-0.5954 -0.9179,-0.2729 -2.18312,-0.2729 -1.04194,0 -1.91023,0.2729 -0.84348,0.2481 -1.43888,0.7195 -0.59539,0.4465 -0.9179,1.0915 -0.32251,0.6202 -0.32251,1.3397 0,0.9427 0.54578,1.5629 0.57059,0.6202 1.46369,1.0667 0.9179,0.4466 2.05908,0.8187 1.16598,0.3473 2.35678,0.7442 1.2156,0.397 2.35678,0.918 1.16598,0.4961 2.05908,1.2652 0.9179,0.7442 1.46368,1.811 0.57059,1.0667 0.57059,2.6048 0,1.7614 -0.64501,3.2747 -0.62021,1.4885 -1.86062,2.5801 -1.2156,1.0915 -3.0266,1.7117 -1.811,0.6202 -4.14297,0.6202 -2.60486,0 -4.81279,-0.8683 -2.20793,-0.8682 -3.69642,-2.2079 l 1.14118,-1.8606 q 0.19846,-0.3473 0.49616,-0.521 0.2977,-0.1984 0.79386,-0.1984 0.47136,0 0.96752,0.3473 0.49617,0.3473 1.1908,0.769 0.69463,0.397 1.68695,0.7443 0.99233,0.3225 2.48082,0.3225 1.24041,0 2.15832,-0.2977 0.9179,-0.3225 1.5133,-0.8435 0.6202,-0.5458 0.9179,-1.2404 0.2977,-0.6946 0.2977,-1.4637 0,-0.9923 -0.57059,-1.6373 -0.54578,-0.6698 -1.46368,-1.1412 -0.8931,-0.4714 -2.05908,-0.8187 -1.16599,-0.3473 -2.38159,-0.7442 -1.2156,-0.397 -2.38159,-0.9179 -1.16598,-0.521 -2.08389,-1.3149 -0.89309,-0.7938 -1.46368,-1.935 -0.54578,-1.1412 -0.54578,-2.7785 0,-1.4637 0.5954,-2.8033 0.6202,-1.3397 1.76138,-2.3568 1.16598,-1.0172 2.85294,-1.6126 1.71177,-0.6202 3.89489,-0.6202 2.50563,0 4.51509,0.7939 2.03427,0.7939 3.47315,2.1831 l -1.06676,1.7614 z"
         inkscape:connector-curvature="0" />
      <path
         id="path3573"
         style="font-style:normal;font-variant:normal;font-weight:500;font-stretch:normal;font-family:Lato;-inkscape-font-specification:'Lato Medium';fill:url(#linearGradient4684);fill-opacity:1"
         d="m 341.78502,1009.6229 0,25.2051 -4.8376,0 0,-25.2051 4.8376,0 z m 0.9179,-7.7898 q 0,0.6698 -0.27289,1.29 -0.27289,0.5954 -0.74425,1.0668 -0.44654,0.4465 -1.06675,0.7194 -0.6202,0.2481 -1.29003,0.2481 -0.66982,0 -1.26521,-0.2481 -0.5954,-0.2729 -1.06676,-0.7194 -0.44654,-0.4714 -0.71943,-1.0668 -0.24809,-0.6202 -0.24809,-1.29 0,-0.6946 0.24809,-1.29 0.27289,-0.62023 0.71943,-1.06678 0.47136,-0.47136 1.06676,-0.71944 0.59539,-0.27289 1.26521,-0.27289 0.66983,0 1.29003,0.27289 0.62021,0.24808 1.06675,0.71944 0.47136,0.44655 0.74425,1.06678 0.27289,0.5954 0.27289,1.29 z"
         inkscape:connector-curvature="0" />
      <path
         id="path3575"
         style="font-style:normal;font-variant:normal;font-weight:500;font-stretch:normal;font-family:Lato;-inkscape-font-specification:'Lato Medium';fill:url(#linearGradient4686);fill-opacity:1"
         d="m 370.71835,1009.6229 -10.22098,25.2051 -4.36624,0 -10.22098,-25.2051 3.99412,0 q 0.57059,0 0.94271,0.2729 0.37212,0.2729 0.49616,0.6946 l 6.0284,15.4803 q 0.3225,0.9675 0.54578,1.935 0.24808,0.9428 0.44654,1.8855 0.19847,-0.9427 0.44655,-1.8855 0.24808,-0.9427 0.5954,-1.935 l 6.10282,-15.4803 q 0.14885,-0.4217 0.52097,-0.6946 0.37212,-0.2729 0.89309,-0.2729 l 3.79566,0 z"
         inkscape:connector-curvature="0" />
      <path
         id="path3577"
         style="font-style:normal;font-variant:normal;font-weight:500;font-stretch:normal;font-family:Lato;-inkscape-font-specification:'Lato Medium';fill:url(#linearGradient4688);fill-opacity:1"
         d="m 390.63237,1019.4221 q 0,-1.4389 -0.42174,-2.6545 -0.39693,-1.2156 -1.19079,-2.1087 -0.79386,-0.8931 -1.93504,-1.3892 -1.14118,-0.4962 -2.62967,-0.4962 -3.05141,0 -4.81279,1.7614 -1.73657,1.7614 -2.20793,4.8872 l 13.19796,0 z m 3.99412,11.8087 q -0.89309,1.042 -2.05908,1.811 -1.16598,0.7443 -2.48082,1.2156 -1.31483,0.4714 -2.7289,0.6946 -1.38926,0.2233 -2.75371,0.2233 -2.60486,0 -4.8376,-0.8683 -2.20793,-0.8931 -3.84527,-2.58 -1.61253,-1.7118 -2.53044,-4.2174 -0.89309,-2.5305 -0.89309,-5.8051 0,-2.6297 0.81867,-4.8872 0.81867,-2.2824 2.33197,-3.9694 1.53811,-1.6869 3.74604,-2.6544 2.20793,-0.9676 4.96164,-0.9676 2.30716,0 4.2422,0.7691 1.95985,0.7442 3.37392,2.1831 1.41406,1.4389 2.20792,3.5476 0.81868,2.1087 0.81868,4.8128 0,1.1163 -0.24809,1.5133 -0.24808,0.3721 -0.9179,0.3721 l -16.52226,0 q 0.0744,2.2575 0.64501,3.9445 0.57059,1.6622 1.56292,2.7785 1.01714,1.1164 2.40639,1.6622 1.38926,0.5458 3.10103,0.5458 1.61253,0 2.77852,-0.3722 1.19079,-0.3721 2.03427,-0.7938 0.86829,-0.4466 1.43888,-0.8187 0.59539,-0.3721 1.04194,-0.3721 0.5954,0 0.9179,0.4465 l 1.38926,1.7862 z"
         inkscape:connector-curvature="0" />
      <path
         id="path3579"
         style="font-style:normal;font-variant:normal;font-weight:500;font-stretch:normal;font-family:Lato;-inkscape-font-specification:'Lato Medium';fill:url(#linearGradient4690);fill-opacity:1"
         d="m 441.22326,999.20343 -14.48799,35.62457 -4.73836,0 -14.48799,-35.62457 4.21739,0 q 0.69463,0 1.11637,0.34731 0.44655,0.34732 0.66982,0.89306 l 9.62558,24.2128 q 0.34732,0.8931 0.66982,1.9599 0.34732,1.0667 0.62021,2.2327 0.24808,-1.166 0.54578,-2.2327 0.2977,-1.0668 0.64501,-1.9599 l 9.60078,-24.2128 q 0.17365,-0.49612 0.6202,-0.86825 0.47136,-0.37212 1.14118,-0.37212 l 4.2422,0 z"
         inkscape:connector-curvature="0" />
      <path
         id="path3581"
         style="font-style:normal;font-variant:normal;font-weight:500;font-stretch:normal;font-family:Lato;-inkscape-font-specification:'Lato Medium';fill:url(#linearGradient4692);fill-opacity:1"
         d="m 449.73945,1009.6229 0,25.2051 -4.8376,0 0,-25.2051 4.8376,0 z m 0.91791,-7.7898 q 0,0.6698 -0.27289,1.29 -0.27289,0.5954 -0.74425,1.0668 -0.44655,0.4465 -1.06675,0.7194 -0.62021,0.2481 -1.29003,0.2481 -0.66982,0 -1.26522,-0.2481 -0.59539,-0.2729 -1.06675,-0.7194 -0.44655,-0.4714 -0.71944,-1.0668 -0.24808,-0.6202 -0.24808,-1.29 0,-0.6946 0.24808,-1.29 0.27289,-0.62023 0.71944,-1.06678 0.47136,-0.47136 1.06675,-0.71944 0.5954,-0.27289 1.26522,-0.27289 0.66982,0 1.29003,0.27289 0.6202,0.24808 1.06675,0.71944 0.47136,0.44655 0.74425,1.06678 0.27289,0.5954 0.27289,1.29 z"
         inkscape:connector-curvature="0" />
      <path
         id="path3583"
         style="font-style:normal;font-variant:normal;font-weight:500;font-stretch:normal;font-family:Lato;-inkscape-font-specification:'Lato Medium';fill:url(#linearGradient4694);fill-opacity:1"
         d="m 471.65206,1013.9643 q -0.19846,0.3225 -0.42173,0.4714 -0.22328,0.124 -0.57059,0.124 -0.39693,0 -0.8931,-0.2729 -0.47135,-0.2729 -1.16598,-0.5954 -0.66982,-0.3225 -1.58773,-0.5954 -0.9179,-0.2729 -2.18312,-0.2729 -1.04194,0 -1.91023,0.2729 -0.84348,0.2481 -1.43888,0.7195 -0.59539,0.4465 -0.9179,1.0915 -0.32251,0.6202 -0.32251,1.3397 0,0.9427 0.54578,1.5629 0.57059,0.6202 1.46369,1.0667 0.9179,0.4466 2.05908,0.8187 1.16598,0.3473 2.35678,0.7442 1.2156,0.397 2.35678,0.918 1.16598,0.4961 2.05908,1.2652 0.9179,0.7442 1.46368,1.811 0.57059,1.0667 0.57059,2.6048 0,1.7614 -0.64501,3.2747 -0.62021,1.4885 -1.86062,2.5801 -1.2156,1.0915 -3.0266,1.7117 -1.811,0.6202 -4.14297,0.6202 -2.60486,0 -4.81279,-0.8683 -2.20793,-0.8682 -3.69642,-2.2079 l 1.14118,-1.8606 q 0.19846,-0.3473 0.49616,-0.521 0.2977,-0.1984 0.79386,-0.1984 0.47136,0 0.96752,0.3473 0.49617,0.3473 1.1908,0.769 0.69463,0.397 1.68695,0.7443 0.99233,0.3225 2.48082,0.3225 1.24041,0 2.15832,-0.2977 0.9179,-0.3225 1.5133,-0.8435 0.6202,-0.5458 0.9179,-1.2404 0.2977,-0.6946 0.2977,-1.4637 0,-0.9923 -0.57059,-1.6373 -0.54578,-0.6698 -1.46368,-1.1412 -0.8931,-0.4714 -2.05908,-0.8187 -1.16599,-0.3473 -2.38159,-0.7442 -1.2156,-0.397 -2.38159,-0.9179 -1.16598,-0.521 -2.08389,-1.3149 -0.89309,-0.7938 -1.46368,-1.935 -0.54578,-1.1412 -0.54578,-2.7785 0,-1.4637 0.5954,-2.8033 0.6202,-1.3397 1.76138,-2.3568 1.16598,-1.0172 2.85294,-1.6126 1.71177,-0.6202 3.89489,-0.6202 2.50563,0 4.51509,0.7939 2.03427,0.7939 3.47315,2.1831 l -1.06676,1.7614 z"
         inkscape:connector-curvature="0" />
      <path
         id="path3585"
         style="font-style:normal;font-variant:normal;font-weight:500;font-stretch:normal;font-family:Lato;-inkscape-font-specification:'Lato Medium';fill:url(#linearGradient4696);fill-opacity:1"
         d="m 499.36514,1009.6229 0,25.2051 -2.90256,0 q -0.99233,0 -1.29002,-0.9675 l -0.34732,-2.5305 q -0.81867,0.8683 -1.71176,1.5878 -0.8931,0.7194 -1.91024,1.2404 -1.01713,0.4961 -2.15831,0.769 -1.14118,0.2977 -2.45601,0.2977 -2.08389,0 -3.67161,-0.6946 -1.56292,-0.6946 -2.62967,-1.935 -1.06676,-1.2653 -1.61254,-3.0266 -0.54578,-1.7614 -0.54578,-3.8949 l 0,-16.0509 4.86241,0 0,16.0509 q 0,2.7041 1.24041,4.2174 1.24041,1.4885 3.79565,1.4885 1.86062,0 3.47315,-0.8683 1.61254,-0.8931 3.0266,-2.4312 l 0,-18.4573 4.8376,0 z"
         inkscape:connector-curvature="0" />
      <path
         id="path3587"
         style="font-style:normal;font-variant:normal;font-weight:500;font-stretch:normal;font-family:Lato;-inkscape-font-specification:'Lato Medium';fill:url(#linearGradient4698);fill-opacity:1"
         d="m 519.66291,1023.6395 q -2.95217,0.099 -5.01125,0.4714 -2.05908,0.3473 -3.34911,0.9427 -1.29003,0.5954 -1.86061,1.414 -0.57059,0.7939 -0.57059,1.7862 0,0.9427 0.2977,1.6374 0.3225,0.6698 0.84347,1.1163 0.54578,0.4218 1.26522,0.6202 0.71944,0.1985 1.56292,0.1985 1.11637,0 2.03427,-0.2233 0.94271,-0.2232 1.76138,-0.6202 0.81867,-0.4217 1.56292,-1.0171 0.74425,-0.5954 1.46368,-1.3645 l 0,-4.9616 z m -14.19029,-10.4939 q 2.1087,-2.0094 4.56471,-3.0018 2.48082,-0.9923 5.433,-0.9923 2.15831,0 3.82046,0.7195 1.66215,0.6946 2.80333,1.9598 1.14117,1.2652 1.71176,3.0266 0.5954,1.7614 0.5954,3.8949 l 0,16.0757 -2.15831,0 q -0.71944,0 -1.09156,-0.2233 -0.37213,-0.2481 -0.5954,-0.8931 l -0.52097,-2.2079 q -0.96752,0.8931 -1.91023,1.5877 -0.94272,0.6699 -1.98466,1.166 -1.01714,0.4714 -2.18312,0.7195 -1.16599,0.248 -2.58005,0.248 -1.4885,0 -2.80333,-0.3969 -1.29003,-0.4217 -2.25755,-1.2652 -0.96752,-0.8435 -1.53811,-2.1087 -0.54578,-1.2652 -0.54578,-2.9522 0,-1.4885 0.79387,-2.8529 0.81867,-1.3893 2.62967,-2.4809 1.8358,-1.0915 4.76317,-1.7861 2.95218,-0.6947 7.24399,-0.7939 l 0,-1.8358 q 0,-2.853 -1.2156,-4.267 -1.2156,-1.4141 -3.57238,-1.4141 -1.58772,0 -2.67928,0.3969 -1.06676,0.397 -1.86062,0.8931 -0.76905,0.4714 -1.36445,0.8683 -0.57059,0.397 -1.19079,0.397 -0.49617,0 -0.86829,-0.2729 -0.34732,-0.2729 -0.57059,-0.645 l -0.86829,-1.563 z"
         inkscape:connector-curvature="0" />
      <path
         id="path3589"
         style="font-style:normal;font-variant:normal;font-weight:500;font-stretch:normal;font-family:Lato;-inkscape-font-specification:'Lato Medium';fill:url(#linearGradient4700);fill-opacity:1"
         d="m 535.88747,998.2111 0,36.6169 -4.8624,0 0,-36.6169 4.8624,0 z"
         inkscape:connector-curvature="0" />
      <path
         id="path3591"
         style="font-style:normal;font-variant:normal;font-weight:500;font-stretch:normal;font-family:Lato;-inkscape-font-specification:'Lato Medium';fill:url(#linearGradient4702);fill-opacity:1"
         d="m 547.80934,1009.6229 0,25.2051 -4.8376,0 0,-25.2051 4.8376,0 z m 0.9179,-7.7898 q 0,0.6698 -0.27289,1.29 -0.27289,0.5954 -0.74424,1.0668 -0.44655,0.4465 -1.06676,0.7194 -0.6202,0.2481 -1.29002,0.2481 -0.66982,0 -1.26522,-0.2481 -0.5954,-0.2729 -1.06675,-0.7194 -0.44655,-0.4714 -0.71944,-1.0668 -0.24808,-0.6202 -0.24808,-1.29 0,-0.6946 0.24808,-1.29 0.27289,-0.62023 0.71944,-1.06678 0.47135,-0.47136 1.06675,-0.71944 0.5954,-0.27289 1.26522,-0.27289 0.66982,0 1.29002,0.27289 0.62021,0.24808 1.06676,0.71944 0.47135,0.44655 0.74424,1.06678 0.27289,0.5954 0.27289,1.29 z"
         inkscape:connector-curvature="0" />
      <path
         id="path3593"
         style="font-style:normal;font-variant:normal;font-weight:500;font-stretch:normal;font-family:Lato;-inkscape-font-specification:'Lato Medium';fill:url(#linearGradient4704);fill-opacity:1"
         d="m 572.42607,1011.6571 q 0,0.521 -0.19846,1.0172 -0.17366,0.4961 -0.47136,0.8435 l -13.22277,17.5145 13.44605,0 0,3.7957 -19.12712,0 0,-2.0343 q 0,-0.3473 0.17365,-0.8186 0.17366,-0.4962 0.49617,-0.9179 l 13.29719,-17.6387 -13.19796,0 0,-3.7956 18.80461,0 0,2.0342 z"
         inkscape:connector-curvature="0" />
      <path
         id="path3595"
         style="font-style:normal;font-variant:normal;font-weight:500;font-stretch:normal;font-family:Lato;-inkscape-font-specification:'Lato Medium';fill:url(#linearGradient4706);fill-opacity:1"
         d="m 590.88957,1023.6395 q -2.95218,0.099 -5.01126,0.4714 -2.05908,0.3473 -3.34911,0.9427 -1.29002,0.5954 -1.86061,1.414 -0.57059,0.7939 -0.57059,1.7862 0,0.9427 0.2977,1.6374 0.32251,0.6698 0.84348,1.1163 0.54578,0.4218 1.26522,0.6202 0.71943,0.1985 1.56291,0.1985 1.11637,0 2.03428,-0.2233 0.94271,-0.2232 1.76138,-0.6202 0.81867,-0.4217 1.56291,-1.0171 0.74425,-0.5954 1.46369,-1.3645 l 0,-4.9616 z m -14.19029,-10.4939 q 2.1087,-2.0094 4.56471,-3.0018 2.48082,-0.9923 5.43299,-0.9923 2.15832,0 3.82046,0.7195 1.66215,0.6946 2.80333,1.9598 1.14118,1.2652 1.71177,3.0266 0.59539,1.7614 0.59539,3.8949 l 0,16.0757 -2.15831,0 q -0.71944,0 -1.09156,-0.2233 -0.37212,-0.2481 -0.5954,-0.8931 l -0.52097,-2.2079 q -0.96752,0.8931 -1.91023,1.5877 -0.94271,0.6699 -1.98466,1.166 -1.01713,0.4714 -2.18312,0.7195 -1.16598,0.248 -2.58005,0.248 -1.48849,0 -2.80333,-0.3969 -1.29002,-0.4217 -2.25754,-1.2652 -0.96752,-0.8435 -1.53811,-2.1087 -0.54578,-1.2652 -0.54578,-2.9522 0,-1.4885 0.79386,-2.8529 0.81867,-1.3893 2.62967,-2.4809 1.83581,-1.0915 4.76317,-1.7861 2.95218,-0.6947 7.244,-0.7939 l 0,-1.8358 q 0,-2.853 -1.2156,-4.267 -1.21561,-1.4141 -3.57238,-1.4141 -1.58773,0 -2.67929,0.3969 -1.06675,0.397 -1.86061,0.8931 -0.76906,0.4714 -1.36446,0.8683 -0.57058,0.397 -1.19079,0.397 -0.49616,0 -0.86829,-0.2729 -0.34731,-0.2729 -0.57058,-0.645 l -0.86829,-1.563 z"
         inkscape:connector-curvature="0" />
      <path
         id="path3597"
         style="font-style:normal;font-variant:normal;font-weight:500;font-stretch:normal;font-family:Lato;-inkscape-font-specification:'Lato Medium';fill:url(#linearGradient4708);fill-opacity:1"
         d="m 625.75204,1034.828 -4.8624,0 0,-21.2854 -12.65219,0 0,14.7608 q 0,1.4885 0.71944,2.2328 0.74425,0.7194 1.88543,0.7194 0.66982,0 1.14117,-0.1736 0.49617,-0.1737 0.84348,-0.3722 0.34732,-0.2232 0.5954,-0.3969 0.24808,-0.1736 0.44655,-0.1736 0.24808,0 0.37212,0.124 0.14885,0.099 0.2977,0.3473 l 1.43887,2.332 q -1.19079,1.0915 -2.82813,1.6869 -1.63734,0.5954 -3.39873,0.5954 -3.0514,0 -4.71355,-1.7117 -1.63734,-1.7118 -1.63734,-4.8872 l 0,-15.0834 -2.92737,0 q -0.42174,0 -0.71944,-0.2481 -0.27289,-0.2729 -0.27289,-0.7939 l 0,-1.9598 4.11816,-0.5706 1.06675,-7.5169 q 0.0992,-0.4217 0.37213,-0.645 0.2977,-0.2481 0.74424,-0.2481 l 2.45601,0 0,8.4596 17.51459,0 0,24.8082 z m 1.09156,-33.1438 q 0,0.6699 -0.27289,1.2901 -0.27289,0.5954 -0.74424,1.0667 -0.44655,0.4466 -1.06675,0.7195 -0.62021,0.248 -1.29003,0.248 -0.66982,0 -1.26522,-0.248 -0.5954,-0.2729 -1.06675,-0.7195 -0.44655,-0.4713 -0.71944,-1.0667 -0.24808,-0.6202 -0.24808,-1.2901 0,-0.6946 0.24808,-1.3148 0.27289,-0.62019 0.71944,-1.06674 0.47135,-0.47135 1.06675,-0.71944 0.5954,-0.27289 1.26522,-0.27289 0.66982,0 1.29003,0.27289 0.6202,0.24809 1.06675,0.71944 0.47135,0.44655 0.74424,1.06674 0.27289,0.6202 0.27289,1.3148 z"
         inkscape:connector-curvature="0" />
      <path
         id="path3599"
         style="font-style:normal;font-variant:normal;font-weight:500;font-stretch:normal;font-family:Lato;-inkscape-font-specification:'Lato Medium';fill:url(#linearGradient4710);fill-opacity:1"
         d="m 643.51709,1009.2259 q 2.77852,0 5.01125,0.9179 2.25755,0.8931 3.82047,2.6049 1.58772,1.687 2.4312,4.0934 0.84348,2.3815 0.84348,5.3585 0,2.977 -0.84348,5.3834 -0.84348,2.4064 -2.4312,4.0934 -1.56292,1.6869 -3.82047,2.6048 -2.23273,0.8931 -5.01125,0.8931 -2.80333,0 -5.06087,-0.8931 -2.23274,-0.9179 -3.82047,-2.6048 -1.58772,-1.687 -2.45601,-4.0934 -0.84348,-2.4064 -0.84348,-5.3834 0,-2.977 0.84348,-5.3585 0.86829,-2.4064 2.45601,-4.0934 1.58773,-1.7118 3.82047,-2.6049 2.25754,-0.9179 5.06087,-0.9179 z m 0,22.1786 q 3.57238,0 5.33376,-2.4064 1.76138,-2.4064 1.76138,-6.7727 0,-4.3662 -1.76138,-6.7726 -1.76138,-2.4312 -5.33376,-2.4312 -3.622,0 -5.40819,2.4312 -1.76138,2.4064 -1.76138,6.7726 0,4.3663 1.76138,6.7727 1.78619,2.4064 5.40819,2.4064 z"
         inkscape:connector-curvature="0" />
      <path
         id="path3601"
         style="font-style:normal;font-variant:normal;font-weight:500;font-stretch:normal;font-family:Lato;-inkscape-font-specification:'Lato Medium';fill:url(#linearGradient4712);fill-opacity:1"
         d="m 665.51493,1013.1208 q 0.81867,-0.8683 1.71176,-1.5877 0.8931,-0.7194 1.88543,-1.2156 1.01713,-0.521 2.15831,-0.7939 1.16599,-0.2977 2.48082,-0.2977 2.08389,0 3.64681,0.6947 1.58772,0.6946 2.65447,1.9598 1.06676,1.2404 1.61254,3.0018 0.54578,1.7614 0.54578,3.8949 l 0,16.0509 -4.86241,0 0,-16.0509 q 0,-2.7041 -1.24041,-4.1926 -1.24041,-1.5133 -3.79565,-1.5133 -1.86062,0 -3.49796,0.8931 -1.61253,0.8683 -3.00179,2.3816 l 0,18.4821 -4.8376,0 0,-25.2051 2.90256,0 q 1.01713,0 1.26522,0.9675 l 0.37212,2.5304 z"
         inkscape:connector-curvature="0" />
      <path
         id="path3603"
         style="font-style:normal;font-variant:normal;font-weight:500;font-stretch:normal;font-family:Lato;-inkscape-font-specification:'Lato Medium';fill:url(#linearGradient4714);fill-opacity:1"
         d="m 724.28789,1030.5362 -0.0248,4.2918 -22.07929,0 0,-35.62457 22.07929,0 0,4.29177 -16.77034,0 0,11.2878 13.49566,0 0,4.1429 -13.49566,0 0,11.6103 16.79515,0 z"
         inkscape:connector-curvature="0" />
      <path
         id="path3605"
         style="font-style:normal;font-variant:normal;font-weight:500;font-stretch:normal;font-family:Lato;-inkscape-font-specification:'Lato Medium';fill:url(#linearGradient4716);fill-opacity:1"
         d="m 733.6406,1013.1208 q 0.81867,-0.8683 1.71177,-1.5877 0.89309,-0.7194 1.88542,-1.2156 1.01714,-0.521 2.15831,-0.7939 1.16599,-0.2977 2.48082,-0.2977 2.08389,0 3.64681,0.6947 1.58772,0.6946 2.65448,1.9598 1.06675,1.2404 1.61253,3.0018 0.54578,1.7614 0.54578,3.8949 l 0,16.0509 -4.86241,0 0,-16.0509 q 0,-2.7041 -1.24041,-4.1926 -1.24041,-1.5133 -3.79565,-1.5133 -1.86062,0 -3.49796,0.8931 -1.61253,0.8683 -3.00179,2.3816 l 0,18.4821 -4.8376,0 0,-25.2051 2.90256,0 q 1.01714,0 1.26522,0.9675 l 0.37212,2.5304 z"
         inkscape:connector-curvature="0" />
      <path
         id="path3607"
         style="font-style:normal;font-variant:normal;font-weight:500;font-stretch:normal;font-family:Lato;-inkscape-font-specification:'Lato Medium';fill:url(#linearGradient4718);fill-opacity:1"
         d="m 778.1155,1009.6229 -10.22097,25.2051 -4.36625,0 -10.22098,-25.2051 3.99412,0 q 0.57059,0 0.94272,0.2729 0.37212,0.2729 0.49616,0.6946 l 6.02839,15.4803 q 0.32251,0.9675 0.54578,1.935 0.24808,0.9428 0.44655,1.8855 0.19847,-0.9427 0.44655,-1.8855 0.24808,-0.9427 0.59539,-1.935 l 6.10282,-15.4803 q 0.14885,-0.4217 0.52097,-0.6946 0.37213,-0.2729 0.8931,-0.2729 l 3.79565,0 z"
         inkscape:connector-curvature="0" />
      <path
         id="path3609"
         style="font-style:normal;font-variant:normal;font-weight:500;font-stretch:normal;font-family:Lato;-inkscape-font-specification:'Lato Medium';fill:url(#linearGradient4720);fill-opacity:1"
         d="m 787.07283,1009.6229 0,25.2051 -4.8376,0 0,-25.2051 4.8376,0 z m 0.9179,-7.7898 q 0,0.6698 -0.27289,1.29 -0.27289,0.5954 -0.74425,1.0668 -0.44654,0.4465 -1.06675,0.7194 -0.6202,0.2481 -1.29002,0.2481 -0.66983,0 -1.26522,-0.2481 -0.5954,-0.2729 -1.06675,-0.7194 -0.44655,-0.4714 -0.71944,-1.0668 -0.24808,-0.6202 -0.24808,-1.29 0,-0.6946 0.24808,-1.29 0.27289,-0.62023 0.71944,-1.06678 0.47135,-0.47136 1.06675,-0.71944 0.59539,-0.27289 1.26522,-0.27289 0.66982,0 1.29002,0.27289 0.62021,0.24808 1.06675,0.71944 0.47136,0.44655 0.74425,1.06678 0.27289,0.5954 0.27289,1.29 z"
         inkscape:connector-curvature="0" />
      <path
         id="path3611"
         style="font-style:normal;font-variant:normal;font-weight:500;font-stretch:normal;font-family:Lato;-inkscape-font-specification:'Lato Medium';fill:url(#linearGradient4722);fill-opacity:1"
         d="m 798.69001,1014.4605 q 1.2156,-2.4808 2.92736,-3.8949 1.71177,-1.4141 4.11816,-1.4141 0.81867,0 1.53811,0.1985 0.74425,0.1736 1.29003,0.5458 l -0.32251,3.6468 q -0.17366,0.6698 -0.81867,0.6698 -0.34731,0 -1.04194,-0.1241 -0.69463,-0.1488 -1.48849,-0.1488 -1.16599,0 -2.05908,0.3473 -0.8931,0.3225 -1.61254,0.9923 -0.69463,0.6451 -1.24041,1.6126 -0.54578,0.9427 -1.01713,2.1583 l 0,15.778 -4.8376,0 0,-25.2051 2.77852,0 q 0.79386,0 1.06675,0.2977 0.2977,0.2729 0.42174,0.9923 l 0.2977,3.5476 z"
         inkscape:connector-curvature="0" />
      <path
         id="path3613"
         style="font-style:normal;font-variant:normal;font-weight:500;font-stretch:normal;font-family:Lato;-inkscape-font-specification:'Lato Medium';fill:url(#linearGradient4724);fill-opacity:1"
         d="m 822.1167,1009.2259 q 2.77852,0 5.01125,0.9179 2.25755,0.8931 3.82047,2.6049 1.58772,1.687 2.4312,4.0934 0.84348,2.3815 0.84348,5.3585 0,2.977 -0.84348,5.3834 -0.84348,2.4064 -2.4312,4.0934 -1.56292,1.6869 -3.82047,2.6048 -2.23273,0.8931 -5.01125,0.8931 -2.80333,0 -5.06087,-0.8931 -2.23274,-0.9179 -3.82047,-2.6048 -1.58772,-1.687 -2.45601,-4.0934 -0.84348,-2.4064 -0.84348,-5.3834 0,-2.977 0.84348,-5.3585 0.86829,-2.4064 2.45601,-4.0934 1.58773,-1.7118 3.82047,-2.6049 2.25754,-0.9179 5.06087,-0.9179 z m 0,22.1786 q 3.57238,0 5.33376,-2.4064 1.76138,-2.4064 1.76138,-6.7727 0,-4.3662 -1.76138,-6.7726 -1.76138,-2.4312 -5.33376,-2.4312 -3.622,0 -5.40819,2.4312 -1.76138,2.4064 -1.76138,6.7726 0,4.3663 1.76138,6.7727 1.78619,2.4064 5.40819,2.4064 z"
         inkscape:connector-curvature="0" />
      <path
         id="path3615"
         style="font-style:normal;font-variant:normal;font-weight:500;font-stretch:normal;font-family:Lato;-inkscape-font-specification:'Lato Medium';fill:url(#linearGradient4726);fill-opacity:1"
         d="m 844.1146,1013.1208 q 0.81867,-0.8683 1.71177,-1.5877 0.89309,-0.7194 1.88542,-1.2156 1.01713,-0.521 2.15831,-0.7939 1.16599,-0.2977 2.48082,-0.2977 2.08389,0 3.64681,0.6947 1.58772,0.6946 2.65447,1.9598 1.06676,1.2404 1.61254,3.0018 0.54578,1.7614 0.54578,3.8949 l 0,16.0509 -4.86241,0 0,-16.0509 q 0,-2.7041 -1.24041,-4.1926 -1.24041,-1.5133 -3.79565,-1.5133 -1.86062,0 -3.49796,0.8931 -1.61253,0.8683 -3.00179,2.3816 l 0,18.4821 -4.8376,0 0,-25.2051 2.90256,0 q 1.01713,0 1.26522,0.9675 l 0.37212,2.5304 z"
         inkscape:connector-curvature="0" />
      <path
         id="path3617"
         style="font-style:normal;font-variant:normal;font-weight:500;font-stretch:normal;font-family:Lato;-inkscape-font-specification:'Lato Medium';fill:url(#linearGradient4728);fill-opacity:1"
         d="m 867.29009,1034.828 0,-25.2051 2.90256,0 q 1.01714,0 1.26522,0.9675 l 0.34731,2.4064 q 1.38926,-1.6622 3.07622,-2.7041 1.71177,-1.0668 3.99412,-1.0668 2.50563,0 4.06855,1.3893 1.56291,1.3645 2.28235,3.7212 0.54578,-1.3396 1.41407,-2.3071 0.86828,-0.9676 1.93504,-1.5878 1.06675,-0.6202 2.25754,-0.9179 1.2156,-0.2977 2.45601,-0.2977 2.00947,0 3.57239,0.6451 1.58772,0.6202 2.67928,1.8358 1.09156,1.2156 1.66215,3.0018 0.57059,1.7861 0.57059,4.0685 l 0,16.0509 -4.86241,0 0,-16.0509 q 0,-2.8281 -1.24041,-4.267 -1.2156,-1.4389 -3.57238,-1.4389 -1.04194,0 -1.98465,0.3721 -0.94272,0.3474 -1.66215,1.0668 -0.69463,0.7194 -1.11637,1.7862 -0.39693,1.0667 -0.39693,2.4808 l 0,16.0509 -4.86241,0 0,-16.0509 q 0,-2.9274 -1.16599,-4.3166 -1.16598,-1.3893 -3.42353,-1.3893 -1.56291,0 -2.90256,0.8187 -1.33964,0.8187 -2.45601,2.2327 l 0,18.7054 -4.8376,0 z"
         inkscape:connector-curvature="0" />
      <path
         id="path3619"
         style="font-style:normal;font-variant:normal;font-weight:500;font-stretch:normal;font-family:Lato;-inkscape-font-specification:'Lato Medium';fill:url(#linearGradient4730);fill-opacity:1"
         d="m 924.97771,1019.4221 q 0,-1.4389 -0.42174,-2.6545 -0.39693,-1.2156 -1.19079,-2.1087 -0.79387,-0.8931 -1.93504,-1.3892 -1.14118,-0.4962 -2.62967,-0.4962 -3.05141,0 -4.81279,1.7614 -1.73658,1.7614 -2.20793,4.8872 l 13.19796,0 z m 3.99412,11.8087 q -0.8931,1.042 -2.05908,1.811 -1.16599,0.7443 -2.48082,1.2156 -1.31484,0.4714 -2.7289,0.6946 -1.38926,0.2233 -2.75371,0.2233 -2.60486,0 -4.8376,-0.8683 -2.20793,-0.8931 -3.84527,-2.58 -1.61254,-1.7118 -2.53044,-4.2174 -0.89309,-2.5305 -0.89309,-5.8051 0,-2.6297 0.81867,-4.8872 0.81867,-2.2824 2.33197,-3.9694 1.53811,-1.6869 3.74604,-2.6544 2.20792,-0.9676 4.96163,-0.9676 2.30717,0 4.24221,0.7691 1.95984,0.7442 3.37391,2.1831 1.41407,1.4389 2.20793,3.5476 0.81867,2.1087 0.81867,4.8128 0,1.1163 -0.24808,1.5133 -0.24808,0.3721 -0.9179,0.3721 l -16.52226,0 q 0.0744,2.2575 0.64501,3.9445 0.57059,1.6622 1.56292,2.7785 1.01713,1.1164 2.40639,1.6622 1.38926,0.5458 3.10103,0.5458 1.61253,0 2.77851,-0.3722 1.1908,-0.3721 2.03428,-0.7938 0.86828,-0.4466 1.43887,-0.8187 0.5954,-0.3721 1.04195,-0.3721 0.59539,0 0.9179,0.4465 l 1.38926,1.7862 z"
         inkscape:connector-curvature="0" />
      <path
         id="path3621"
         style="font-style:normal;font-variant:normal;font-weight:500;font-stretch:normal;font-family:Lato;-inkscape-font-specification:'Lato Medium';fill:url(#linearGradient4732);fill-opacity:1"
         d="m 939.08347,1013.1208 q 0.81867,-0.8683 1.71177,-1.5877 0.89309,-0.7194 1.88542,-1.2156 1.01714,-0.521 2.15831,-0.7939 1.16599,-0.2977 2.48082,-0.2977 2.08389,0 3.64681,0.6947 1.58772,0.6946 2.65448,1.9598 1.06675,1.2404 1.61253,3.0018 0.54578,1.7614 0.54578,3.8949 l 0,16.0509 -4.86241,0 0,-16.0509 q 0,-2.7041 -1.24041,-4.1926 -1.24041,-1.5133 -3.79565,-1.5133 -1.86062,0 -3.49796,0.8931 -1.61253,0.8683 -3.00179,2.3816 l 0,18.4821 -4.8376,0 0,-25.2051 2.90256,0 q 1.01714,0 1.26522,0.9675 l 0.37212,2.5304 z"
         inkscape:connector-curvature="0" />
      <path
         id="path3623"
         style="font-style:normal;font-variant:normal;font-weight:500;font-stretch:normal;font-family:Lato;-inkscape-font-specification:'Lato Medium';fill:url(#linearGradient4734);fill-opacity:1"
         d="m 969.7604,1035.2249 q -3.05141,0 -4.71356,-1.7117 -1.63734,-1.7118 -1.63734,-4.8872 l 0,-15.0834 -2.92737,0 q -0.42174,0 -0.71944,-0.2481 -0.27289,-0.2729 -0.27289,-0.7939 l 0,-1.9598 4.09336,-0.5706 1.09156,-7.5169 q 0.0992,-0.4217 0.37212,-0.645 0.2977,-0.2481 0.74425,-0.2481 l 2.45601,0 0,8.4596 7.14476,0 0,3.5228 -7.14476,0 0,14.7608 q 0,1.4885 0.71944,2.2328 0.74424,0.7194 1.88542,0.7194 0.66982,0 1.14118,-0.1736 0.49616,-0.1737 0.84347,-0.3722 0.34732,-0.2232 0.5954,-0.3969 0.24808,-0.1736 0.44655,-0.1736 0.24808,0 0.37212,0.124 0.14885,0.099 0.2977,0.3473 l 1.43888,2.332 q -1.1908,1.0915 -2.82814,1.6869 -1.63734,0.5954 -3.39872,0.5954 z"
         inkscape:connector-curvature="0" />
    </g>
  </g>
</svg>
