{
  name: "hive-sim",
  host: "localhost",
  port: 9090,
  index_port: 9292,
  background: {
    color: "#2b2b33",
    watermark: {
      svg: "images/HIVE.svg",
      color: "rgba(255, 255, 255, 0.3)"
    }
  },
  ui: {
    clock: 12,
    show_version: true,
    show_url: true,
  },
  resolution: {
    width: 192,
    height: 108
  },
  layout: {
    rows: 5,
    columns: 7
  },
  displays: [
    {
      row: 0,
      column: 0,
      width: 2,
      height: 5
    },
    {
      row: 0,
      column: 2,
      width: 2,
      height: 5
    },
    {
      row: 0,
      column: 4,
      width: 3,
      height: 5
    },
    {
      row: 0,
      column: 0,
      width: 7,
      height: 5
    }
  ],
  alternate_hosts: [
    "127.0.0.1"
  ],
  remote_sites: [
  ]
}
