{
	"main_script": "meshviewer.js",
	"icon": "icon.jpg",
	"width": 800,
	"height": 500,
	"animation": true,
	"resize": "free",
	"dependencies": [
      "libraries/jquery-min.js",
      "libraries/underscore-min.js",
      "libraries/three.min.js",
      "libraries/orbitcontrols.js",
      "libraries/decimaladjust.js",
      "libraries/colorcurve.js",
      "classes/namespace.js",
      "classes/ui/uiarea.js",
      "classes/ui/uicontrol.js",
      "classes/ui/slidercontrol.js",
      "classes/ui/checkboxcontrol.js",
      "classes/animation.js",
      "classes/animationset.js",
      "classes/animationsetframeprocessor.js",
      "classes/animationsequence.js",
      "classes/engine.js",
      "classes/playbackcontrols.js",
      "classes/renderingcontrols.js",
      "classes/hiveloader.js",
      "classes/plyloader.js",
      "classes/toploader.js",
      "classes/scene.js"
	],
    "load": {
      "file": ""
    },
    "title": "Mesh Viewer",
	"version": "1.0.0",
	"description": "3D mesh viewer",
	"keywords": [ "three", "3d", "animation" ],
	"author": "Matej Jan <matej@stanford.edu>",
	"license": "AGPL3"
}
